simulation/qsim/ulav2.msim.vcd
$comment
	File created using the following command:
		vcd file ulav2.msim.vcd -direction
$end
$date
	Mon Jul 17 21:05:24 2023
$end
$version
	ModelSim Version 2020.1
$end
$timescale
	1ps
$end

$scope module ulav2_vhd_vec_tst $end
$var wire 1 ! carryout $end
$var wire 1 " clk $end
$var wire 1 # D_dec7 [6] $end
$var wire 1 $ D_dec7 [5] $end
$var wire 1 % D_dec7 [4] $end
$var wire 1 & D_dec7 [3] $end
$var wire 1 ' D_dec7 [2] $end
$var wire 1 ( D_dec7 [1] $end
$var wire 1 ) D_dec7 [0] $end
$var wire 1 * f [2] $end
$var wire 1 + f [1] $end
$var wire 1 , f [0] $end
$var wire 1 - overflow $end
$var wire 1 . Res [3] $end
$var wire 1 / Res [2] $end
$var wire 1 0 Res [1] $end
$var wire 1 1 Res [0] $end
$var wire 1 2 rst $end
$var wire 1 3 sinal $end
$var wire 1 4 X_dec7 [6] $end
$var wire 1 5 X_dec7 [5] $end
$var wire 1 6 X_dec7 [4] $end
$var wire 1 7 X_dec7 [3] $end
$var wire 1 8 X_dec7 [2] $end
$var wire 1 9 X_dec7 [1] $end
$var wire 1 : X_dec7 [0] $end
$var wire 1 ; Y [3] $end
$var wire 1 < Y [2] $end
$var wire 1 = Y [1] $end
$var wire 1 > Y [0] $end
$var wire 1 ? Y_dec7 [6] $end
$var wire 1 @ Y_dec7 [5] $end
$var wire 1 A Y_dec7 [4] $end
$var wire 1 B Y_dec7 [3] $end
$var wire 1 C Y_dec7 [2] $end
$var wire 1 D Y_dec7 [1] $end
$var wire 1 E Y_dec7 [0] $end
$var wire 1 F zeros $end

$scope module i1 $end
$var wire 1 G gnd $end
$var wire 1 H vcc $end
$var wire 1 I unknown $end
$var wire 1 J devoe $end
$var wire 1 K devclrn $end
$var wire 1 L devpor $end
$var wire 1 M ww_devoe $end
$var wire 1 N ww_devclrn $end
$var wire 1 O ww_devpor $end
$var wire 1 P ww_clk $end
$var wire 1 Q ww_rst $end
$var wire 1 R ww_Y [3] $end
$var wire 1 S ww_Y [2] $end
$var wire 1 T ww_Y [1] $end
$var wire 1 U ww_Y [0] $end
$var wire 1 V ww_f [2] $end
$var wire 1 W ww_f [1] $end
$var wire 1 X ww_f [0] $end
$var wire 1 Y ww_Res [3] $end
$var wire 1 Z ww_Res [2] $end
$var wire 1 [ ww_Res [1] $end
$var wire 1 \ ww_Res [0] $end
$var wire 1 ] ww_zeros $end
$var wire 1 ^ ww_overflow $end
$var wire 1 _ ww_carryout $end
$var wire 1 ` ww_sinal $end
$var wire 1 a ww_X_dec7 [6] $end
$var wire 1 b ww_X_dec7 [5] $end
$var wire 1 c ww_X_dec7 [4] $end
$var wire 1 d ww_X_dec7 [3] $end
$var wire 1 e ww_X_dec7 [2] $end
$var wire 1 f ww_X_dec7 [1] $end
$var wire 1 g ww_X_dec7 [0] $end
$var wire 1 h ww_Y_dec7 [6] $end
$var wire 1 i ww_Y_dec7 [5] $end
$var wire 1 j ww_Y_dec7 [4] $end
$var wire 1 k ww_Y_dec7 [3] $end
$var wire 1 l ww_Y_dec7 [2] $end
$var wire 1 m ww_Y_dec7 [1] $end
$var wire 1 n ww_Y_dec7 [0] $end
$var wire 1 o ww_D_dec7 [6] $end
$var wire 1 p ww_D_dec7 [5] $end
$var wire 1 q ww_D_dec7 [4] $end
$var wire 1 r ww_D_dec7 [3] $end
$var wire 1 s ww_D_dec7 [2] $end
$var wire 1 t ww_D_dec7 [1] $end
$var wire 1 u ww_D_dec7 [0] $end
$var wire 1 v \Res[0]~output_o\ $end
$var wire 1 w \Res[1]~output_o\ $end
$var wire 1 x \Res[2]~output_o\ $end
$var wire 1 y \Res[3]~output_o\ $end
$var wire 1 z \zeros~output_o\ $end
$var wire 1 { \overflow~output_o\ $end
$var wire 1 | \carryout~output_o\ $end
$var wire 1 } \sinal~output_o\ $end
$var wire 1 ~ \X_dec7[0]~output_o\ $end
$var wire 1 !! \X_dec7[1]~output_o\ $end
$var wire 1 "! \X_dec7[2]~output_o\ $end
$var wire 1 #! \X_dec7[3]~output_o\ $end
$var wire 1 $! \X_dec7[4]~output_o\ $end
$var wire 1 %! \X_dec7[5]~output_o\ $end
$var wire 1 &! \X_dec7[6]~output_o\ $end
$var wire 1 '! \Y_dec7[0]~output_o\ $end
$var wire 1 (! \Y_dec7[1]~output_o\ $end
$var wire 1 )! \Y_dec7[2]~output_o\ $end
$var wire 1 *! \Y_dec7[3]~output_o\ $end
$var wire 1 +! \Y_dec7[4]~output_o\ $end
$var wire 1 ,! \Y_dec7[5]~output_o\ $end
$var wire 1 -! \Y_dec7[6]~output_o\ $end
$var wire 1 .! \D_dec7[0]~output_o\ $end
$var wire 1 /! \D_dec7[1]~output_o\ $end
$var wire 1 0! \D_dec7[2]~output_o\ $end
$var wire 1 1! \D_dec7[3]~output_o\ $end
$var wire 1 2! \D_dec7[4]~output_o\ $end
$var wire 1 3! \D_dec7[5]~output_o\ $end
$var wire 1 4! \D_dec7[6]~output_o\ $end
$var wire 1 5! \clk~input_o\ $end
$var wire 1 6! \conta|q_temp[0]~3_combout\ $end
$var wire 1 7! \rst~input_o\ $end
$var wire 1 8! \conta|q_temp[1]~2_combout\ $end
$var wire 1 9! \conta|q_temp[2]~1_combout\ $end
$var wire 1 :! \conta|q_temp[3]~0_combout\ $end
$var wire 1 ;! \Y[3]~input_o\ $end
$var wire 1 <! \Y[0]~input_o\ $end
$var wire 1 =! \Y[1]~input_o\ $end
$var wire 1 >! \cmag|magnitude[0]~0_combout\ $end
$var wire 1 ?! \Y[2]~input_o\ $end
$var wire 1 @! \cmag|magnitude[0]~1_combout\ $end
$var wire 1 A! \chave2|S[0]~16_combout\ $end
$var wire 1 B! \f[2]~input_o\ $end
$var wire 1 C! \f[1]~input_o\ $end
$var wire 1 D! \f[0]~input_o\ $end
$var wire 1 E! \control|C0~0_combout\ $end
$var wire 1 F! \chave1|Y[0]~0_combout\ $end
$var wire 1 G! \control|KX~combout\ $end
$var wire 1 H! \chave2|S[0]~24_combout\ $end
$var wire 1 I! \chave2|S[0]~15_combout\ $end
$var wire 1 J! \chave2|S[0]~23_combout\ $end
$var wire 1 K! \chave2|S[0]~14_combout\ $end
$var wire 1 L! \chave2|S[0]~17_combout\ $end
$var wire 1 M! \chave2|S[1]~25_combout\ $end
$var wire 1 N! \cmag|magnitude[1]~2_combout\ $end
$var wire 1 O! \cmag|magnitude[1]~3_combout\ $end
$var wire 1 P! \chave1|Y[1]~1_combout\ $end
$var wire 1 Q! \somador|C1~0_combout\ $end
$var wire 1 R! \chave2|S[1]~26_combout\ $end
$var wire 1 S! \chave2|S[1]~18_combout\ $end
$var wire 1 T! \somador|C2~0_combout\ $end
$var wire 1 U! \chave1|Y[2]~2_combout\ $end
$var wire 1 V! \chave2|S[2]~28_combout\ $end
$var wire 1 W! \chave2|S[2]~27_combout\ $end
$var wire 1 X! \chave2|S[2]~19_combout\ $end
$var wire 1 Y! \chave2|S[3]~21_combout\ $end
$var wire 1 Z! \chave2|S[3]~20_combout\ $end
$var wire 1 [! \somador|Cn_1~0_combout\ $end
$var wire 1 \! \chave1|Y[3]~3_combout\ $end
$var wire 1 ]! \chave2|S[3]~22_combout\ $end
$var wire 1 ^! \flag|zeros~0_combout\ $end
$var wire 1 _! \flag|overflow~combout\ $end
$var wire 1 `! \somador|Cn~0_combout\ $end
$var wire 1 a! \saidaX|Mux6~0_combout\ $end
$var wire 1 b! \saidaX|Mux5~0_combout\ $end
$var wire 1 c! \saidaX|Mux4~0_combout\ $end
$var wire 1 d! \saidaX|Mux3~0_combout\ $end
$var wire 1 e! \saidaX|Mux2~0_combout\ $end
$var wire 1 f! \saidaX|Mux1~0_combout\ $end
$var wire 1 g! \saidaX|Mux0~0_combout\ $end
$var wire 1 h! \saidaY|Mux6~0_combout\ $end
$var wire 1 i! \saidaY|Mux5~0_combout\ $end
$var wire 1 j! \saidaY|Mux4~0_combout\ $end
$var wire 1 k! \saidaY|Mux3~0_combout\ $end
$var wire 1 l! \saidaY|Mux2~0_combout\ $end
$var wire 1 m! \saidaY|Mux1~0_combout\ $end
$var wire 1 n! \saidaY|Mux0~0_combout\ $end
$var wire 1 o! \saidaD|Mux6~0_combout\ $end
$var wire 1 p! \saidaD|Mux5~0_combout\ $end
$var wire 1 q! \saidaD|Mux4~0_combout\ $end
$var wire 1 r! \saidaD|Mux3~0_combout\ $end
$var wire 1 s! \saidaD|Mux2~0_combout\ $end
$var wire 1 t! \saidaD|Mux1~0_combout\ $end
$var wire 1 u! \saidaD|Mux0~0_combout\ $end
$var wire 1 v! \somador|S\ [3] $end
$var wire 1 w! \somador|S\ [2] $end
$var wire 1 x! \somador|S\ [1] $end
$var wire 1 y! \somador|S\ [0] $end
$var wire 1 z! \conta|q_temp\ [3] $end
$var wire 1 {! \conta|q_temp\ [2] $end
$var wire 1 |! \conta|q_temp\ [1] $end
$var wire 1 }! \conta|q_temp\ [0] $end
$var wire 1 ~! \cmag|magnitude\ [3] $end
$var wire 1 !" \cmag|magnitude\ [2] $end
$var wire 1 "" \cmag|magnitude\ [1] $end
$var wire 1 #" \cmag|magnitude\ [0] $end
$var wire 1 $" \ALT_INV_rst~input_o\ $end
$var wire 1 %" \ALT_INV_clk~input_o\ $end
$var wire 1 &" \saidaD|ALT_INV_Mux6~0_combout\ $end
$var wire 1 '" \saidaY|ALT_INV_Mux6~0_combout\ $end
$var wire 1 (" \saidaX|ALT_INV_Mux6~0_combout\ $end
$var wire 1 )" \flag|ALT_INV_zeros~0_combout\ $end
$upscope $end
$upscope $end
$enddefinitions $end
#0
$dumpvars
0!
0"
0-
x2
03
0F
0G
1H
xI
1J
1K
1L
1M
1N
1O
0P
xQ
0]
0^
0_
0`
0v
1w
1x
0y
0z
0{
0|
0}
1~
0!!
0"!
0#!
0$!
0%!
0&!
0'!
0(!
0)!
0*!
0+!
1,!
0-!
0.!
0/!
00!
01!
02!
13!
04!
05!
16!
x7!
08!
09!
0:!
0;!
0<!
1=!
0>!
1?!
0@!
0A!
0B!
0C!
0D!
0E!
0F!
0G!
0H!
0I!
0J!
1K!
0L!
1M!
1N!
1O!
1P!
0Q!
1R!
1S!
0T!
1U!
0V!
0W!
1X!
0Y!
1Z!
0[!
0\!
0]!
1^!
0_!
0`!
0a!
0b!
0c!
0d!
0e!
0f!
0g!
1h!
0i!
0j!
0k!
0l!
1m!
0n!
1o!
0p!
0q!
0r!
0s!
1t!
0u!
x$"
1%"
0&"
0'"
1("
0)"
0*
0+
0,
0;
1<
1=
0>
0.
1/
10
01
04
05
06
07
08
09
1:
0?
1@
0A
0B
0C
0D
0E
0#
1$
0%
0&
0'
0(
0)
0R
1S
1T
0U
0V
0W
0X
0Y
1Z
1[
0\
0a
0b
0c
0d
0e
0f
1g
0h
1i
0j
0k
0l
0m
0n
0o
1p
0q
0r
0s
0t
0u
0v!
1w!
1x!
0y!
0z!
0{!
0|!
0}!
x~!
1!"
1""
x#"
$end
#25000
1"
1P
15!
0%"
#50000
0"
1,
1;
0<
0P
1X
0S
1R
1;!
0?!
1D!
05!
1%"
1E!
1F!
0P!
1k!
0m!
1}!
0x!
1Q!
06!
18!
1y!
1b!
1c!
1d!
1g!
1x!
0R!
0,!
1*!
1H!
0S!
1R!
0i
1k
1L!
1B
0@
1&!
1#!
1"!
1!!
1S!
1q!
1r!
0t!
1u!
0r!
1t!
0u!
1a
1d
1e
1f
0o!
1p!
1r!
0t!
19
18
17
14
0w
1&"
1v
0[
14!
03!
11!
10!
1w
1\
00
04!
13!
01!
1o
0p
1r
1s
1[
11
03!
11!
1/!
0o
1p
0r
1'
1&
0$
1#
10
1.!
0p
1r
1t
0&
1$
0#
1u
1(
1&
0$
1)
#75000
1"
1P
15!
0%"
#100000
0"
0,
1<
1+
0=
0P
0X
1W
0T
1S
1?!
0=!
1C!
0D!
05!
1%"
0F!
1G!
1Y!
1>!
0M!
0U!
0h!
0k!
1l!
1m!
0}!
1|!
1'"
0x!
1T!
1v!
0Q!
1M!
1x!
0T!
16!
0y!
1Q!
1a!
0c!
0d!
1e!
0g!
0x!
1]!
0w!
1[!
0R!
0("
1,!
1+!
0*!
1x!
0H!
1w!
0[!
1R!
1'!
0S!
0v!
1`!
1V!
1o!
0p!
0q!
1s!
1t!
0R!
1i
1j
0k
1}
1S!
1v!
0`!
0V!
0L!
1R!
0&"
1n
0B
1A
1@
0&!
1$!
0#!
0"!
0S!
0X!
0]!
1p!
0r!
0s!
0t!
1u!
1`
1E
0~
1y
1S!
1X!
1]!
0p!
1s!
1t!
0u!
0a
1c
0d
0e
13
0o!
0s!
0t!
0g
1Y
08
07
16
04
13!
12!
00!
0/!
1|
0}
0w
1o!
1s!
1t!
1&"
0:
1.
0.!
0v
0|
1}
1w
0&"
1p
1q
0s
0t
1_
0`
0[
14!
03!
02!
01!
1/!
0y
0x
0w
0u
0\
0_
1`
1[
0(
0'
1%
1$
1!
03
00
04!
13!
12!
0/!
1y
1x
1w
1o
0p
0q
0r
1t
0Y
0Z
0[
0)
01
10
0!
13
03!
02!
0o
1p
1q
0t
1Y
1Z
1[
1(
0&
0%
0$
1#
00
0/
0.
1.!
13!
12!
0p
0q
0(
1%
1$
0#
10
1/
1.
0.!
1u
1p
1q
0%
0$
0u
1)
1%
1$
0)
#125000
1"
1P
15!
0%"
#150000
0"
1,
0<
1=
1>
0P
1X
1U
1T
0S
0?!
1=!
1<!
1D!
05!
1%"
0G!
0Y!
0>!
1@!
1h!
0l!
1n!
1}!
0'"
0@!
1y!
0Q!
0x!
1T!
0w!
0v!
06!
08!
19!
0y!
1J!
0O!
1Q!
1c!
0e!
0]!
1V!
1w!
0R!
1x!
0T!
1H!
1-!
0+!
0x!
1T!
0H!
0^!
0'!
1L!
0w!
1R!
0S!
0V!
1^!
0X!
0s!
1)"
1h
0j
0}
0L!
1w!
0R!
0)"
0n
0A
1?
0$!
1"!
1X!
1S!
1V!
0^!
0o!
1p!
1q!
1r!
0t!
1u!
0`
0E
0y
0S!
0V!
1^!
0p!
0q!
0r!
0u!
1&"
1)"
0c
1e
03
0X!
1o!
1t!
0)"
0Y
18
06
1z
02!
0x
0w
1v
1X!
1q!
1r!
0t!
1u!
0&"
0.
0z
0v
0o!
0q!
0r!
0u!
1]
0q
0Z
0[
1\
14!
03!
11!
10!
1/!
1w
1x
1o!
1q!
1r!
1u!
1&"
0]
0\
1F
0%
11
00
0/
1z
1.!
04!
01!
00!
0/!
0w
0&"
1o
0p
1r
1s
1t
1[
1Z
0F
01
0z
13!
0x
1]
1u
0o
0r
0s
0t
0[
1(
1'
1&
0$
1#
10
1/
0.!
14!
03!
11!
10!
1x
0]
1p
0Z
1F
1)
0(
0'
0&
0#
00
04!
01!
00!
0u
1o
0p
1r
1s
1Z
0F
1$
0/
1.!
14!
11!
10!
0o
0r
0s
0)
1'
1&
0$
1#
1/
0.!
1u
1o
1r
1s
0'
0&
0#
0u
1)
1'
1&
1#
0)
#175000
1"
1P
15!
0%"
#200000
0"
0,
1<
0=
0>
0+
1*
0P
0X
0W
1V
0U
0T
1S
1?!
0=!
0<!
1B!
0C!
0D!
05!
1%"
0E!
1G!
0J!
1>!
1O!
0h!
1l!
0n!
0}!
0|!
1{!
1'"
1x!
0T!
0w!
1[!
1v!
0Q!
1@!
1w!
1W!
0[!
0M!
0x!
1T!
16!
0>!
1y!
0O!
0b!
1d!
1g!
1x!
0T!
1]!
0v!
1`!
1V!
0w!
1R!
0-!
1+!
1H!
0@!
1w!
0R!
1v!
0`!
0V!
1'!
1S!
1V!
0X!
0]!
0o!
0q!
0r!
1s!
1t!
0u!
0w!
1R!
0h
1j
1}
1X!
1]!
0S!
0V!
1L!
1&"
1n
1A
0?
1&!
1#!
0!!
1S!
1V!
0X!
1o!
1p!
0t!
1`
1E
1|
0}
1y
1X!
0s!
1u!
0&"
1a
1d
0f
13
0|
1}
0X!
0p!
1t!
1_
0`
1Y
09
17
14
04!
13!
12!
01!
00!
0y
0x
1w
1r!
1s!
0u!
0_
1`
1!
03
1.
1.!
1v
0w
1y
1x
0r!
0s!
1u!
0o
1p
1q
0r
0s
0Y
0Z
1[
0!
13
03!
1/!
0x
1w
1u
1\
0[
1Y
1Z
0'
0&
1%
1$
0#
10
0/
0.
0.!
14!
02!
1x
0p
1t
0Z
1[
1)
11
00
1/
1.
13!
0/!
0x
0u
1o
0q
1Z
1(
0$
10
0/
04!
12!
11!
1p
0t
0Z
0)
0%
1#
1/
14!
02!
01!
0o
1q
1r
0(
1$
0/
1o
0q
0r
1&
1%
0#
0&
0%
1#
#225000
1"
1P
15!
0%"
#250000
0"
1,
0<
1=
1>
0P
1X
1U
1T
0S
0?!
1=!
1<!
1D!
05!
1%"
0G!
0K!
0Z!
1O!
1@!
0W!
1h!
0l!
1n!
1}!
0'"
0]!
0L!
0S!
0y!
0x!
1w!
0v!
06!
18!
1y!
1J!
0d!
1f!
0g!
0V!
0H!
0o!
0t!
0u!
1-!
0+!
1L!
1H!
1&"
0'!
1h
0j
0}
0w
0v
0y
1p!
1q!
1r!
1u!
0n
0A
1?
0&!
1%!
0#!
0`
0[
0\
0Y
0E
04!
03!
0a
1b
0d
03
01
00
0.
1.!
1v
0o
0p
07
15
04
1u
1\
0$
0#
14!
11!
10!
1/!
1)
11
1o
1r
1s
1t
1(
1'
1&
1#
#275000
1"
1P
15!
0%"
#300000
0"
0,
0=
0>
1+
0;
0P
0X
1W
0U
0T
0R
0;!
0=!
0<!
1C!
0D!
05!
1%"
1K!
0H!
1I!
1V!
1W!
1>!
1A!
0!"
0h!
0m!
0n!
0}!
1|!
1'"
0V!
1H!
0R!
1X!
1M!
1x!
16!
0y!
0J!
0c!
1o!
0p!
0r!
1t!
0u!
0-!
0,!
0L!
1R!
1S!
0&"
1'!
0h
0i
1x
0q!
1n
0@
0?
0"!
1Z
1E
04!
13!
01!
0/!
0e
1/
0.!
1w
0v
0o
1p
0r
0t
08
0u
1[
0\
0(
0&
1$
0#
00!
0)
01
10
0s
0'
#325000
1"
1P
15!
0%"
#350000
0"
1,
1=
1>
1;
0P
1X
1U
1T
1R
1;!
1=!
1<!
1D!
05!
1%"
0K!
1F!
1J!
0>!
1P!
0A!
1!"
1\!
1h!
1m!
1n!
1}!
0'"
1v!
1V!
0H!
0x!
1T!
1y!
1L!
0S!
0X!
06!
08!
09!
1:!
0y!
0O!
1Q!
0a!
1b!
1c!
1d!
0f!
0o!
1p!
1q!
1r!
0t!
1u!
0w!
1[!
0L!
1X!
1("
1-!
1,!
1x!
1&"
0'!
1o!
0p!
0v!
1`!
1h
1i
0x
0w
1v
1}
0&"
0n
1@
1?
0%!
1#!
1"!
1!!
0Z
0[
1\
1`
0E
1~
1x
0v
14!
03!
11!
10!
1/!
0b
1d
1e
1f
11
00
0/
13
1.!
1g
1Z
0\
1o
0p
1r
1s
1t
19
18
17
05
1|
0}
0/!
1u
1:
01
1/
1(
1'
1&
0$
1#
0.!
1_
0`
0t
1)
0u
1!
03
0(
0)
#375000
1"
1P
15!
0%"
#399000
0,
0+
0*
0X
0W
0V
0B!
0C!
0D!
0I!
1K!
0W!
1Z!
1S!
0X!
1p!
0q!
0r!
1s!
0u!
0x
1w
0Z
1[
04!
12!
01!
00!
1/!
10
0/
0o
1q
0r
0s
1t
1(
0'
0&
1%
0#
#400000
0"
0=
0;
1<
0P
0T
1S
0R
0;!
1?!
0=!
05!
1%"
1>!
1O!
0P!
0@!
1U!
1W!
1A!
0N!
0!"
0\!
1j!
0n!
0}!
0|!
0{!
1z!
1v!
1_!
0`!
1w!
0A!
1!"
0x!
1@!
1A!
0!"
0v!
0_!
1`!
0@!
1N!
0w!
0W!
0M!
1x!
0T!
16!
0>!
1y!
0J!
0Q!
1a!
0b!
0c!
0d!
0R!
0V!
1]!
0("
0-!
1)!
0x!
1w!
0[!
1R!
0]!
1V!
1H!
0p!
1r!
0s!
1X!
0S!
0h
1l
0|
1{
1}
1L!
0X!
1p!
0r!
1s!
1S!
1v!
0`!
0V!
0R!
1C
0?
0#!
0"!
0!!
1|
0{
0}
0p!
1q!
1r!
0s!
1u!
0_
1^
1`
0~
1y
0S!
1X!
1]!
1p!
0r!
0u!
0d
0e
0f
1_
0^
0`
0!
1-
13
0y
0g
1Y
09
08
07
1!
0-
03
0w
1x
02!
11!
0/!
0q!
1u!
0Y
0:
1.
0|
1}
1w
12!
01!
1/!
0x
1v
0[
1Z
0q
1r
0t
0.
14!
02!
11!
10!
0/!
0_
1`
1[
1q
0r
1t
0Z
1\
00
1/
0(
1&
0%
04!
01!
1/!
1y
1x
0w
1o
0q
1r
1s
0t
0!
13
11
10
0/
1(
0&
1%
0o
0r
1t
1Y
1Z
0[
0(
1'
1&
0%
1#
14!
00!
1(
0&
0#
00
1/
1.
1o
0s
0'
1#
#425000
1"
1P
15!
0%"
#450000
0"
1=
1;
0<
1,
0>
0P
0U
1T
0S
1R
1X
1D!
1;!
0?!
1=!
0<!
05!
1%"
0A!
0N!
1!"
0j!
1k!
0m!
1E!
1M!
1Y!
1}!
0y!
1Q!
06!
18!
1y!
1c!
1x!
0H!
0,!
1*!
0)!
1H!
0L!
1R!
0i
1k
0l
1L!
0C
1B
0@
1"!
1S!
0o!
0p!
1s!
1t!
0u!
1o!
1p!
0s!
0t!
1u!
1&"
1e
0p!
1r!
1s!
1t!
0u!
0&"
18
0v
1v
0\
04!
13!
12!
0/!
1w
1\
01
1.!
14!
03!
02!
1/!
0o
1p
1q
0t
1[
11
0.!
04!
13!
12!
11!
0/!
1u
1o
0p
0q
1t
0(
1%
1$
0#
10
0u
0o
1p
1q
1r
0t
1)
1(
0%
0$
1#
0)
0(
1&
1%
1$
0#
#475000
1"
1P
15!
0%"
#500000
0"
0=
0;
0,
1>
1+
0P
1U
0T
0R
0X
1W
1C!
0D!
0;!
0=!
1<!
05!
1%"
0O!
1A!
1N!
0!"
0h!
1i!
1j!
1n!
0M!
0F!
1G!
1J!
0U!
0}!
1|!
1'"
0x!
1T!
0v!
0Q!
1M!
1x!
0T!
16!
1>!
0y!
0J!
1O!
1Q!
0c!
1d!
0x!
0]!
0w!
1[!
0R!
1-!
1)!
1(!
1x!
0H!
1@!
1w!
0[!
1R!
1'!
0S!
1v!
1_!
1V!
0o!
1p!
1q!
0s!
0t!
0R!
0^!
1h
1l
1m
0}
1S!
0v!
0_!
0V!
0L!
1R!
1^!
1)"
1&"
1n
1D
1C
1?
1#!
0"!
0S!
0X!
1]!
1o!
0p!
0r!
1t!
0)"
0`
1E
0y
1S!
1X!
0]!
0q!
0&"
1d
0e
03
0t!
0Y
08
17
03!
02!
10!
1/!
1{
1}
0w
1t!
0.
1.!
1z
0v
0{
0}
1w
0p
0q
1s
1t
1^
1`
0[
0z
13!
01!
0/!
1y
0x
0w
1u
1]
0\
0^
0`
1[
1(
1'
0%
0$
1-
13
00
0.!
00!
0y
1x
1w
0]
1p
0r
0t
1Y
0Z
0[
1)
1F
01
10
0-
03
03!
0u
0s
0Y
1Z
1[
0F
0(
0&
1$
00
0/
1.
13!
0p
0)
0'
10
1/
0.
1p
0$
1$
#525000
1"
1P
15!
0%"
#550000
0"
1;
1,
0>
1<
0P
0U
1S
1R
1X
1D!
1;!
1?!
0<!
05!
1%"
0@!
0i!
0j!
0k!
1l!
1m!
0n!
0G!
0Y!
1}!
1y!
0Q!
0x!
1T!
0w!
1v!
0A!
1!"
06!
08!
19!
0y!
1Q!
0d!
1f!
1g!
1]!
1V!
1w!
0R!
1x!
0T!
1H!
0-!
1,!
1+!
0*!
0)!
0(!
0x!
1T!
0H!
1L!
0w!
1R!
0S!
0V!
0X!
1s!
0h
1i
1j
0k
0l
0m
1}
0L!
1w!
0R!
0D
0C
0B
1A
1@
0?
1&!
1%!
0#!
1X!
1S!
1V!
1q!
0s!
0t!
1`
1y
0S!
0V!
0q!
1a
1b
0d
13
0X!
1s!
1t!
1Y
07
15
14
12!
0x
0w
1v
1X!
0o!
1.
0v
1o!
0s!
0t!
1&"
1q
0Z
0[
1\
03!
02!
10!
1w
1x
0o!
1s!
1t!
0&"
0\
1%
11
00
0/
00!
0w
1&"
0p
0q
1s
1[
1Z
01
13!
12!
0x
0s
0[
1'
0%
0$
10
1/
1x
1p
1q
0Z
0'
00
1.!
03!
02!
1Z
1%
1$
0/
0.!
13!
12!
1u
0p
0q
1/
1.!
0u
1p
1q
1)
0%
0$
1u
0)
1%
1$
1)
#575000
1"
1P
15!
0%"
#600000
0"
0;
0,
1>
0<
1=
0+
1*
0P
1U
1T
0S
0R
0X
0W
1V
1B!
0C!
0D!
0;!
0?!
1=!
1<!
05!
1%"
0>!
0O!
1@!
1A!
0!"
1h!
1i!
1j!
0l!
0m!
0E!
1G!
1J!
0}!
0|!
1{!
0'"
1x!
0T!
0w!
1[!
0v!
0Q!
0@!
1@!
1w!
0[!
0x!
1T!
16!
1y!
0J!
1O!
0a!
1e!
0g!
1x!
0T!
0]!
1v!
1_!
1V!
0w!
1R!
1("
0,!
0+!
1)!
1(!
1H!
1w!
0R!
0v!
0_!
0V!
0'!
1S!
1V!
0X!
1]!
1o!
1q!
1r!
0s!
0t!
1u!
0w!
1R!
0i
0j
1l
1m
0}
1X!
0]!
0S!
0V!
1L!
0&"
0n
1D
1C
0A
0@
0&!
1$!
1S!
1V!
0X!
0q!
0u!
0`
0E
1~
1{
1}
0y
1X!
1q!
0r!
1t!
0a
1c
03
0{
0}
0X!
1p!
0t!
1g
1^
1`
0Y
16
04
14!
03!
02!
11!
10!
1y
0x
1w
0o!
1r!
0^
0`
1:
1-
13
0.
0.!
1v
0w
0y
1x
1o!
0r!
1&"
1o
0p
0q
1r
1s
1Y
0Z
1[
0-
03
04!
00!
0x
1w
0&"
0u
1\
0[
0Y
1Z
1'
1&
0%
0$
1#
10
0/
1.
13!
01!
10!
1x
0o
0s
0Z
1[
0)
11
00
1/
0.
03!
1/!
0x
1p
0r
1s
1Z
0'
0#
10
0/
11!
0p
1t
0Z
1'
0&
1$
1/
1.!
01!
1r
1(
0$
0/
0.!
1u
0r
1&
0u
1)
0&
0)
#625000
1"
1P
15!
0%"
#650000
0"
1,
0>
1<
0=
0P
1X
0U
0T
1S
1?!
0=!
0<!
1D!
05!
1%"
0G!
0K!
0Z!
0M!
0O!
0@!
1W!
0i!
1k!
1n!
1}!
0L!
0S!
1X!
0y!
0x!
1w!
1v!
06!
18!
1>!
1y!
1O!
1a!
1b!
0e!
0f!
1g!
0V!
0H!
0p!
1r!
1u!
0("
1-!
1*!
0(!
1H!
1@!
1h
1k
0m
1}
1x
0w
0v
0D
1B
1?
1&!
0%!
0$!
1!!
1`
1Z
0[
0\
0~
14!
11!
0/!
1a
0b
0c
1f
13
01
00
1/
0g
1o
1r
0t
19
06
05
14
0:
0(
1&
1#
#675000
1"
1P
15!
0%"
#700000
0"
0,
1>
0<
1=
1+
0P
0X
1W
1U
1T
0S
0?!
1=!
1<!
1C!
0D!
05!
1%"
1K!
1I!
1Y!
1F!
1J!
0>!
1M!
1P!
1i!
0k!
0n!
0}!
1|!
1x!
0y!
1Q!
1]!
1L!
0R!
1S!
0x!
1T!
16!
1y!
0Q!
0b!
1e!
1f!
0g!
0q!
1s!
1t!
0u!
1x!
1R!
0-!
0*!
1(!
0x!
0w!
1[!
0R!
1R!
0h
0k
1m
1w
1v
1y
0v!
1`!
0R!
1D
0B
0?
0&!
1%!
1$!
0!!
1[
1\
1Y
04!
13!
12!
00!
0a
1b
1c
0f
11
10
1.
0o
1p
1q
0s
09
16
15
04
0'
1%
1$
0#
1|
0}
1_
0`
1!
03
#725000
1"
1P
15!
0%"
#750000
0"
1,
0>
1;
0P
1X
0U
1R
1;!
0<!
1D!
05!
1%"
0K!
0F!
0J!
0O!
0Y!
1\!
0i!
0j!
1k!
1}!
1v!
0]!
0y!
1R!
0X!
06!
08!
09!
0:!
1>!
1y!
1J!
1O!
1d!
0S!
1p!
1q!
0r!
0s!
0t!
1*!
0)!
0(!
0o!
1r!
1u!
1k
0l
0m
0x
0y
1}
1&"
0D
0C
1B
1#!
0Z
0Y
1`
03!
02!
01!
10!
1/!
0w
1d
0/
0.
13
0p
0q
0r
1s
1t
0[
17
14!
11!
1(
1'
0&
0%
0$
00
1.!
1o
1r
1u
1&
1#
1)
#775000
1"
1P
15!
0%"
